LogoActions: GitHub Actions for the NetLogo Community 🚀
…
$metadata$output_version
[1] "2.0"

$metadata$model_file
[1] "Wolf Sheep Simple 5.nlogox"

$metadata$experiment_name
[1] "Wolf Sheep Simple Model Analysis"

$metadata$world_dimensions
min-pxcor max-pxcor min-pycor max-pycor 
      -17        17       -17        17 

$table
# A tibble: 110,110 × 10
   run_number number_of_sheep number_of_wolves movement_cost grass_regrowth_rate
        <dbl>           <dbl>            <dbl>         <dbl>               <dbl>
 1          1             500                5           0.5                 0.3
 2          1             500                5           0.5                 0.3
 3          1             500                5           0.5                 0.3
 4          1             500                5           0.5                 0.3
 5          1             500                5           0.5                 0.3
 6          1             500                5           0.5                 0.3
 7          1             500                5           0.5                 0.3
 8          1             500                5           0.5                 0.3
 9          1             500                5           0.5                 0.3
10          1             500                5           0.5                 0.3
# ℹ 110,100 more rows
# ℹ 5 more variables: energy_gain_from_grass <dbl>,
#   energy_gain_from_sheep <dbl>, step <dbl>, count_wolves <dbl>,
#   count_sheep <dbl>
…
$metadata$output_version
[1] "2.0"

$metadata$model_file
[1] "Spread of Disease.nlogox"

$metadata$experiment_name
[1] "Population Density (Runtime)"

$metadata$world_dimensions
min-pxcor max-pxcor min-pycor max-pycor 
      -20        20       -20        20 

$table
# A tibble: 8,674 × 8
   run_number variant num_people connections_per_node num_infected disease_decay
        <dbl> <chr>        <dbl>                <dbl>        <dbl>         <dbl>
 1          1 mobile          50                  4.1            1             0
 2          1 mobile          50                  4.1            1             0
 3          1 mobile          50                  4.1            1             0
 4          1 mobile          50                  4.1            1             0
 5          1 mobile          50                  4.1            1             0
 6          1 mobile          50                  4.1            1             0
 7          1 mobile          50                  4.1            1             0
 8          1 mobile          50                  4.1            1             0
 9          1 mobile          50                  4.1            1             0
10          1 mobile          50                  4.1            1             0
# ℹ 8,664 more rows
# ℹ 2 more variables: step <dbl>, count_turtles_with_infected <dbl>
…
